{"_id":{"$oid":"5e2cb685a8c84f3c64ec3494"},"nombre":"Adolfo","TelefonoCell":"982932115","TelefonoFijo":"987654321","email":"adolfo@hotmail.com","FechaNacimiento":"17-11-1876","Direccion":""}
{"_id":{"$oid":"5e2cb6d1369d2cccca76bafd"},"nombre":"Adolfo","TelefonoCell":"982932115","TelefonoFijo":"987654321","email":"adolfo@hotmail.com","FechaNacimiento":"17-11-1876","Direccion":""}
{"_id":{"$oid":"5e2ceb447cf037f9ba07fc10"},"nombre":"Adolfo","TelefonoCell":"982932115","TelefonoFijo":"987654321","email":"adolfo@hotmail.com","FechaNacimiento":"17-11-1876","Direccion":""}
